HW03
…
In summary, we can see that before removing the stop words, the tokens shows nothing interesting. After we remove the stop words, the most 5 frequent tokens for each term show words like patients and disease.

Calculate the TF-IDF value for each word-search term combination. (here you want the search term to be the document) What are the 5 tokens from each search term with the highest TF-IDF value? How are the results different from the answers you got in question 1?

We can see that for term covid, the 5 tokens with highest TF-IDF are covid, pandemic, coronavirus, sars, cov; for the term prostate cancer, the 5 tokens with highest TF-IDF are prostate, androgen, psa, prostatectomy, placenta; for the term preeclampsia, the 5 tokens with highest TF-IDF are eclampsia, preeclampsia, pregnancy, maternal, gestational; for the term meningitis, the 5 tokens with highest TF-IDF are meningitis, meningeal, pachymeningitis, csf, meninges; for the term cystic fibrosis, the 5 tokens with highest TF-IDF are cf, fibrosis, cystic, cftr, sweat. The results are all different from what we have in question 1.

pubmed %>%
  unnest_tokens(word, abstract) %>%
  count(word, term) %>%
  bind_tf_idf(word, term, n) %>%
  arrange(desc(tf_idf))

## # A tibble: 39,240 x 6
##    word         term                n      tf   idf  tf_idf
##    <chr>        <chr>           <int>   <dbl> <dbl>   <dbl>
##  1 covid        covid            7275 0.0371  1.61  0.0597 
##  2 prostate     prostate cancer  3832 0.0312  1.61  0.0502 
##  3 eclampsia    preeclampsia     2005 0.0143  1.61  0.0230 
##  4 preeclampsia preeclampsia     1863 0.0133  1.61  0.0214 
##  5 meningitis   meningitis        429 0.00919 1.61  0.0148 
##  6 cf           cystic fibrosis   625 0.0127  0.916 0.0117 
##  7 fibrosis     cystic fibrosis   867 0.0176  0.511 0.00901
##  8 cystic       cystic fibrosis   862 0.0175  0.511 0.00896
##  9 meningeal    meningitis        219 0.00469 1.61  0.00755
## 10 pandemic     covid             800 0.00408 1.61  0.00657
## #  with 39,230 more rows
